\relax 
\providecommand\hyper@newdestlabel[2]{}
\providecommand\HyperFirstAtBeginDocument{\AtBeginDocument}
\HyperFirstAtBeginDocument{\ifx\hyper@anchor\@undefined
\global\let\oldcontentsline\contentsline
\gdef\contentsline#1#2#3#4{\oldcontentsline{#1}{#2}{#3}}
\global\let\oldnewlabel\newlabel
\gdef\newlabel#1#2{\newlabelxx{#1}#2}
\gdef\newlabelxx#1#2#3#4#5#6{\oldnewlabel{#1}{{#2}{#3}}}
\AtEndDocument{\ifx\hyper@anchor\@undefined
\let\contentsline\oldcontentsline
\let\newlabel\oldnewlabel
\fi}
\fi}
\global\let\hyper@last\relax 
\gdef\HyperFirstAtBeginDocument#1{#1}
\providecommand\HyField@AuxAddToFields[1]{}
\providecommand\HyField@AuxAddToCoFields[2]{}
\@writefile{nav}{\headcommand {\slideentry {0}{0}{1}{1/1}{}{0}}}
\@writefile{nav}{\headcommand {\beamer@framepages {1}{1}}}
\pgfsyspdfmark {pgfid3}{1864679}{13140793}
\pgfsyspdfmark {pgfid5}{1864679}{13140793}
\pgfsyspdfmark {pgfid7}{1864679}{13140793}
\pgfsyspdfmark {pgfid9}{1864679}{13140793}
\pgfsyspdfmark {pgfid11}{1864679}{13140793}
\pgfsyspdfmark {pgfid13}{1864679}{13140793}
\pgfsyspdfmark {pgfid15}{1864679}{13140793}
\pgfsyspdfmark {pgfid17}{1864679}{13140793}
\pgfsyspdfmark {pgfid19}{1864679}{13140793}
\pgfsyspdfmark {pgfid21}{1864679}{13140793}
\@writefile{nav}{\headcommand {\slideentry {0}{0}{2}{2/11}{}{0}}}
\@writefile{nav}{\headcommand {\beamer@framepages {2}{11}}}
\@writefile{nav}{\headcommand {\slideentry {0}{0}{3}{12/12}{}{0}}}
\@writefile{nav}{\headcommand {\beamer@framepages {12}{12}}}
\pgfsyspdfmark {pgfid24}{1864679}{12999926}
\pgfsyspdfmark {pgfid26}{1864679}{12999926}
\pgfsyspdfmark {pgfid28}{1864679}{12999926}
\pgfsyspdfmark {pgfid30}{1864679}{12999926}
\pgfsyspdfmark {pgfid32}{1864679}{12999926}
\pgfsyspdfmark {pgfid34}{1864679}{12999926}
\pgfsyspdfmark {pgfid36}{1864679}{12999926}
\pgfsyspdfmark {pgfid38}{1864679}{12999926}
\@writefile{nav}{\headcommand {\slideentry {0}{0}{4}{13/20}{}{0}}}
\@writefile{nav}{\headcommand {\beamer@framepages {13}{20}}}
\pgfsyspdfmark {pgfid40}{1864679}{11835315}
\pgfsyspdfmark {pgfid42}{1864679}{11835315}
\pgfsyspdfmark {pgfid44}{1864679}{11835315}
\pgfsyspdfmark {pgfid46}{1864679}{11835315}
\pgfsyspdfmark {pgfid48}{1864679}{11835315}
\pgfsyspdfmark {pgfid50}{1864679}{11835315}
\pgfsyspdfmark {pgfid52}{1864679}{11835315}
\pgfsyspdfmark {pgfid54}{1864679}{11835315}
\@writefile{nav}{\headcommand {\slideentry {0}{0}{5}{21/28}{}{0}}}
\@writefile{nav}{\headcommand {\beamer@framepages {21}{28}}}
\pgfsyspdfmark {pgfid56}{1864679}{14087644}
\pgfsyspdfmark {pgfid58}{1864679}{14087644}
\pgfsyspdfmark {pgfid60}{1864679}{14087644}
\pgfsyspdfmark {pgfid62}{1864679}{14087644}
\pgfsyspdfmark {pgfid64}{1864679}{14087644}
\pgfsyspdfmark {pgfid66}{1864679}{14087644}
\pgfsyspdfmark {pgfid68}{1864679}{14087644}
\pgfsyspdfmark {pgfid70}{1864679}{14087644}
\@writefile{nav}{\headcommand {\slideentry {0}{0}{6}{29/36}{}{0}}}
\@writefile{nav}{\headcommand {\beamer@framepages {29}{36}}}
\@writefile{nav}{\headcommand {\slideentry {0}{0}{7}{37/40}{}{0}}}
\@writefile{nav}{\headcommand {\beamer@framepages {37}{40}}}
\pgfsyspdfmark {pgfid76}{1864679}{6613405}
\pgfsyspdfmark {pgfid78}{1864679}{6613405}
\pgfsyspdfmark {pgfid80}{1864679}{6613405}
\pgfsyspdfmark {pgfid82}{1864679}{6613405}
\pgfsyspdfmark {pgfid84}{1864679}{6613405}
\pgfsyspdfmark {pgfid86}{1864679}{6613405}
\pgfsyspdfmark {pgfid88}{1864679}{6613405}
\pgfsyspdfmark {pgfid90}{1864679}{6613405}
\pgfsyspdfmark {pgfid92}{1864679}{6613405}
\pgfsyspdfmark {pgfid94}{1864679}{6613405}
\pgfsyspdfmark {pgfid96}{1864679}{6613405}
\@writefile{nav}{\headcommand {\slideentry {0}{0}{8}{41/51}{}{0}}}
\@writefile{nav}{\headcommand {\beamer@framepages {41}{51}}}
\@writefile{nav}{\headcommand {\slideentry {0}{0}{9}{52/55}{}{0}}}
\@writefile{nav}{\headcommand {\beamer@framepages {52}{55}}}
\@writefile{nav}{\headcommand {\slideentry {0}{0}{10}{56/66}{}{0}}}
\@writefile{nav}{\headcommand {\beamer@framepages {56}{66}}}
\@writefile{nav}{\headcommand {\slideentry {0}{0}{11}{67/67}{}{0}}}
\@writefile{nav}{\headcommand {\beamer@framepages {67}{67}}}
\@writefile{nav}{\headcommand {\beamer@partpages {1}{67}}}
\@writefile{nav}{\headcommand {\beamer@subsectionpages {1}{67}}}
\@writefile{nav}{\headcommand {\beamer@sectionpages {1}{67}}}
\@writefile{nav}{\headcommand {\beamer@documentpages {67}}}
\@writefile{nav}{\headcommand {\gdef \inserttotalframenumber {11}}}
