\relax 
\@writefile{lof}{\contentsline {figure}{\numberline {1}{\ignorespaces 3D rendering of base network.}}{1}\protected@file@percent }
\newlabel{fig:basenet}{{1}{1}}
\@writefile{lof}{\contentsline {figure}{\numberline {2}{\ignorespaces Visualization of 2D cell lists.}}{1}\protected@file@percent }
\newlabel{fig:cell}{{2}{1}}
\@writefile{lof}{\contentsline {figure}{\numberline {3}{\ignorespaces Run-times for increasing network sizes.}}{1}\protected@file@percent }
\newlabel{fig:algo}{{3}{1}}
