\relax 
\providecommand\hyper@newdestlabel[2]{}
\abx@aux@refcontext{none/global//global/global}
\providecommand\HyperFirstAtBeginDocument{\AtBeginDocument}
\HyperFirstAtBeginDocument{\ifx\hyper@anchor\@undefined
\global\let\oldcontentsline\contentsline
\gdef\contentsline#1#2#3#4{\oldcontentsline{#1}{#2}{#3}}
\global\let\oldnewlabel\newlabel
\gdef\newlabel#1#2{\newlabelxx{#1}#2}
\gdef\newlabelxx#1#2#3#4#5#6{\oldnewlabel{#1}{{#2}{#3}}}
\AtEndDocument{\ifx\hyper@anchor\@undefined
\let\contentsline\oldcontentsline
\let\newlabel\oldnewlabel
\fi}
\fi}
\global\let\hyper@last\relax 
\gdef\HyperFirstAtBeginDocument#1{#1}
\providecommand\HyField@AuxAddToFields[1]{}
\providecommand\HyField@AuxAddToCoFields[2]{}
\@writefile{toc}{\boolfalse {citerequest}\boolfalse {citetracker}\boolfalse {pagetracker}\boolfalse {backtracker}\relax }
\@writefile{lof}{\boolfalse {citerequest}\boolfalse {citetracker}\boolfalse {pagetracker}\boolfalse {backtracker}\relax }
\@writefile{lot}{\boolfalse {citerequest}\boolfalse {citetracker}\boolfalse {pagetracker}\boolfalse {backtracker}\relax }
\abx@aux@cite{MEYER2021103936}
\abx@aux@segm{0}{0}{MEYER2021103936}
\abx@aux@cite{MEYER2021101592}
\abx@aux@segm{0}{0}{MEYER2021101592}
\abx@aux@cite{petsc-web-page}
\abx@aux@segm{0}{0}{petsc-web-page}
\abx@aux@cite{MEYER2021103936}
\abx@aux@segm{0}{0}{MEYER2021103936}
\@writefile{toc}{\defcounter {refsection}{0}\relax }\@writefile{toc}{\contentsline {section}{\numberline {1}Introduction}{2}{section.1}\protected@file@percent }
\@writefile{toc}{\defcounter {refsection}{0}\relax }\@writefile{toc}{\contentsline {section}{\numberline {2}Parallel Flow Solver}{2}{section.2}\protected@file@percent }
\newlabel{sec:solver}{{2}{2}{Parallel Flow Solver}{section.2}{}}
\@writefile{toc}{\defcounter {refsection}{0}\relax }\@writefile{toc}{\contentsline {subsection}{\numberline {2.1}PETSc Interface}{2}{subsection.2.1}\protected@file@percent }
\abx@aux@cite{hypre-web-page}
\abx@aux@segm{0}{0}{hypre-web-page}
\@writefile{toc}{\defcounter {refsection}{0}\relax }\@writefile{toc}{\contentsline {subsection}{\numberline {2.2}Solver}{3}{subsection.2.2}\protected@file@percent }
\@writefile{toc}{\defcounter {refsection}{0}\relax }\@writefile{toc}{\contentsline {subsection}{\numberline {2.3}Limitations}{3}{subsection.2.3}\protected@file@percent }
\@writefile{toc}{\defcounter {refsection}{0}\relax }\@writefile{toc}{\contentsline {subsection}{\numberline {2.4}Results}{3}{subsection.2.4}\protected@file@percent }
\newlabel{sec:quality}{{2.4}{3}{Results}{subsection.2.4}{}}
\abx@aux@cite{MEYER2021101592}
\abx@aux@segm{0}{0}{MEYER2021101592}
\abx@aux@cite{MEYER2021103936}
\abx@aux@segm{0}{0}{MEYER2021103936}
\@writefile{lof}{\defcounter {refsection}{0}\relax }\@writefile{lof}{\contentsline {figure}{\numberline {1}{\ignorespaces Pressures $p_{\mathrm  {in}}$ and $p_{\mathrm  {out}}$ are applied to in-pores and out-pores respectively, driving the network flow. The resulting pressure system is solved with the available solvers and the different fluxes are shown for the individual pores in the case of PETSc (using 4 processes). Since the sequential solvers produce an identical plot, they are omitted here. \relax }}{4}{figure.caption.1}\protected@file@percent }
\providecommand*\caption@xref[2]{\@setref\relax\@undefined{#1}}
\newlabel{fig:balance}{{1}{4}{Pressures $p_{\mathrm {in}}$ and $p_{\mathrm {out}}$ are applied to in-pores and out-pores respectively, driving the network flow. The resulting pressure system is solved with the available solvers and the different fluxes are shown for the individual pores in the case of PETSc (using 4 processes). Since the sequential solvers produce an identical plot, they are omitted here. \relax }{figure.caption.1}{}}
\@writefile{toc}{\defcounter {refsection}{0}\relax }\@writefile{toc}{\contentsline {section}{\numberline {3}Parallel Network Generation}{4}{section.3}\protected@file@percent }
\@writefile{toc}{\defcounter {refsection}{0}\relax }\@writefile{toc}{\contentsline {subsection}{\numberline {3.1}Cell Lists}{4}{subsection.3.1}\protected@file@percent }
\@writefile{toc}{\defcounter {refsection}{0}\relax }\@writefile{toc}{\contentsline {subsection}{\numberline {3.2}Multiprocessing}{4}{subsection.3.2}\protected@file@percent }
\@writefile{lof}{\defcounter {refsection}{0}\relax }\@writefile{lof}{\contentsline {figure}{\numberline {2}{\ignorespaces Cell lists visualized in 2D. The neighborhood of the pore highlighted in red is marked in blue. Because the cell-size is the maximally permissible throat length $L_m$, only the pores contained within the blue region must be considered during neighbor search. Finally, the periodic buffer layers, containing copies of pores on the opposite side from the interior, are painted in orange.\relax }}{5}{figure.caption.2}\protected@file@percent }
\newlabel{fig:cell}{{2}{5}{Cell lists visualized in 2D. The neighborhood of the pore highlighted in red is marked in blue. Because the cell-size is the maximally permissible throat length $L_m$, only the pores contained within the blue region must be considered during neighbor search. Finally, the periodic buffer layers, containing copies of pores on the opposite side from the interior, are painted in orange.\relax }{figure.caption.2}{}}
\@writefile{toc}{\defcounter {refsection}{0}\relax }\@writefile{toc}{\contentsline {subsection}{\numberline {3.3}Iterative Algorithm}{6}{subsection.3.3}\protected@file@percent }
\@writefile{lot}{\defcounter {refsection}{0}\relax }\@writefile{lot}{\contentsline {table}{\numberline {1}{\ignorespaces Sample run of parallel pore-connecting algorithm using 4 threads. The generated network is 3 times as large as the base network in all directions. The maximal feasible number of throats is 103464, of which 27 were not realized due to there being no possible candidates left for these remaining pores.\relax }}{6}{table.caption.3}\protected@file@percent }
\newlabel{table:iter}{{1}{6}{Sample run of parallel pore-connecting algorithm using 4 threads. The generated network is 3 times as large as the base network in all directions. The maximal feasible number of throats is 103464, of which 27 were not realized due to there being no possible candidates left for these remaining pores.\relax }{table.caption.3}{}}
\@writefile{loa}{\defcounter {refsection}{0}\relax }\@writefile{loa}{\contentsline {algorithm}{\numberline {1}{\ignorespaces Connect pores in parallel\relax }}{7}{algorithm.1}\protected@file@percent }
\newlabel{alg:connect}{{1}{7}{Connect pores in parallel\relax }{algorithm.1}{}}
\@writefile{toc}{\defcounter {refsection}{0}\relax }\@writefile{toc}{\contentsline {subsection}{\numberline {3.4}Results}{7}{subsection.3.4}\protected@file@percent }
\abx@aux@cite{MEYER2021101592}
\abx@aux@segm{0}{0}{MEYER2021101592}
\@writefile{lot}{\defcounter {refsection}{0}\relax }\@writefile{lot}{\contentsline {table}{\numberline {2}{\ignorespaces Shown are the fraction of throats that were left unrealized, as well as the average deviation from the target length relative to $L_m$, for both serial and parallel algorithms applied to networks of increasing size.\relax }}{8}{table.caption.4}\protected@file@percent }
\newlabel{table:comp}{{2}{8}{Shown are the fraction of throats that were left unrealized, as well as the average deviation from the target length relative to $L_m$, for both serial and parallel algorithms applied to networks of increasing size.\relax }{table.caption.4}{}}
\@writefile{toc}{\defcounter {refsection}{0}\relax }\@writefile{toc}{\contentsline {section}{\numberline {4}Performance Analysis}{8}{section.4}\protected@file@percent }
\newlabel{sec:perf}{{4}{8}{Performance Analysis}{section.4}{}}
\@writefile{toc}{\defcounter {refsection}{0}\relax }\@writefile{toc}{\contentsline {subsection}{\numberline {4.1}Strong Scaling}{8}{subsection.4.1}\protected@file@percent }
\@writefile{toc}{\defcounter {refsection}{0}\relax }\@writefile{toc}{\contentsline {subsection}{\numberline {4.2}Comparison}{8}{subsection.4.2}\protected@file@percent }
\abx@aux@cite{hypre-web-page}
\abx@aux@segm{0}{0}{hypre-web-page}
\@writefile{lof}{\defcounter {refsection}{0}\relax }\@writefile{lof}{\contentsline {figure}{\numberline {3}{\ignorespaces Performance analysis for parallel network generation algorithm.\relax }}{9}{figure.caption.5}\protected@file@percent }
\newlabel{fig:strong}{{3a}{9}{For a fixed problem size where the network to be generated is $3^3 = 27$ times as large as the base network, we compute the \emph {speedup} for $1, 2, 4, 8, 16$ and $32$ threads. The time measurements of the parallel generation algorithm were conducted on an Euler IV node equipped with Intel Xeon Gold 6150 CPUs and $36$ cores in total.\relax }{figure.caption.5}{}}
\newlabel{sub@fig:strong}{{a}{9}{For a fixed problem size where the network to be generated is $3^3 = 27$ times as large as the base network, we compute the \emph {speedup} for $1, 2, 4, 8, 16$ and $32$ threads. The time measurements of the parallel generation algorithm were conducted on an Euler IV node equipped with Intel Xeon Gold 6150 CPUs and $36$ cores in total.\relax }{figure.caption.5}{}}
\newlabel{fig:comp}{{3b}{9}{Run-times of both serial and parallel algorithms in seconds, as measured on Euler IV node. Measurements are only performed once, since the impact of noise is negligible for sufficiently large networks. The generated size on the $x$-axis refers to the number of times the base network fits inside the generated network. The parallel version is consistently between $10$ and $20$ times faster.\relax }{figure.caption.5}{}}
\newlabel{sub@fig:comp}{{b}{9}{Run-times of both serial and parallel algorithms in seconds, as measured on Euler IV node. Measurements are only performed once, since the impact of noise is negligible for sufficiently large networks. The generated size on the $x$-axis refers to the number of times the base network fits inside the generated network. The parallel version is consistently between $10$ and $20$ times faster.\relax }{figure.caption.5}{}}
\@writefile{toc}{\defcounter {refsection}{0}\relax }\@writefile{toc}{\contentsline {subsection}{\numberline {4.3}Flow Simulation}{9}{subsection.4.3}\protected@file@percent }
\abx@aux@cite{petsc-web-page}
\abx@aux@segm{0}{0}{petsc-web-page}
\abx@aux@cite{petsc-web-page}
\abx@aux@segm{0}{0}{petsc-web-page}
\abx@aux@cite{MEYER2021101592}
\abx@aux@segm{0}{0}{MEYER2021101592}
\@writefile{lof}{\defcounter {refsection}{0}\relax }\@writefile{lof}{\contentsline {figure}{\numberline {4}{\ignorespaces Performance analysis for distributed, iterative flow solver based on PETSc \cite {petsc-web-page}. We simulate \emph  {periodic} network flow with a pressure gradient in $z$-direction of $100 \tmspace  +\thickmuskip {.2777em}\mathrm  {Pa}\tmspace  +\thickmuskip {.2777em}\mathrm  {m}^{-1}$ and dynamic viscosity $\mu = 10^{-3} \tmspace  +\thickmuskip {.2777em}\mathrm  {Pa}\tmspace  +\thickmuskip {.2777em}\mathrm  {s}$.\relax }}{10}{figure.caption.6}\protected@file@percent }
\newlabel{fig:distr}{{4a}{10}{For a fixed periodic network comprised of $46386$ pores and $103412$ throats, we simulate the flow using our distributed algebraic multi-grid (AMG) solver. Shown is the speedup measured on an Euler IV node for communicator sizes $1, 2, 4, 8, 16$ and $32$.\relax }{figure.caption.6}{}}
\newlabel{sub@fig:distr}{{a}{10}{For a fixed periodic network comprised of $46386$ pores and $103412$ throats, we simulate the flow using our distributed algebraic multi-grid (AMG) solver. Shown is the speedup measured on an Euler IV node for communicator sizes $1, 2, 4, 8, 16$ and $32$.\relax }{figure.caption.6}{}}
\newlabel{fig:cmpsolve}{{4b}{10}{Average run-time in seconds of $4$ consecutive runs for both serial and distributed AMG flow solvers, as measured on Euler IV node with our method using 36 ranks. Both methods are applied to increasingly large periodic networks generated using our parallel algorithm.\relax }{figure.caption.6}{}}
\newlabel{sub@fig:cmpsolve}{{b}{10}{Average run-time in seconds of $4$ consecutive runs for both serial and distributed AMG flow solvers, as measured on Euler IV node with our method using 36 ranks. Both methods are applied to increasingly large periodic networks generated using our parallel algorithm.\relax }{figure.caption.6}{}}
\@writefile{toc}{\defcounter {refsection}{0}\relax }\@writefile{toc}{\contentsline {section}{\numberline {5}Discussion}{10}{section.5}\protected@file@percent }
\@writefile{toc}{\defcounter {refsection}{0}\relax }\@writefile{toc}{\contentsline {section}{\numberline {6}Acknowledgments}{10}{section.6}\protected@file@percent }
\abx@aux@cite{petsc-web-page}
\abx@aux@segm{0}{0}{petsc-web-page}
\@writefile{toc}{\defcounter {refsection}{0}\relax }\@writefile{toc}{\contentsline {section}{\numberline {A}PETSc Installation}{11}{appendix.A}\protected@file@percent }
\newlabel{appendix:install}{{A}{11}{PETSc Installation}{appendix.A}{}}
\@writefile{toc}{\defcounter {refsection}{0}\relax }\@writefile{toc}{\contentsline {section}{\numberline {B}Base Network}{11}{appendix.B}\protected@file@percent }
\newlabel{appendix:base}{{B}{11}{Base Network}{appendix.B}{}}
\@writefile{lof}{\defcounter {refsection}{0}\relax }\@writefile{lof}{\contentsline {figure}{\numberline {5}{\ignorespaces Network consisting of 2636 pores and 4291 throats, inscribed within a cube extending $1.07$ mm in each spatial direction. The pore-arrangement is obviously \emph  {not uniform}, as can be seen by the clustering of pores in some regions, while others are mostly undisturbed. The \emph  {porosity}, measured as the relative fraction of volume taken up by the void-space geometry, is roughly $32\%$.\relax }}{11}{figure.caption.7}\protected@file@percent }
\newlabel{fig:base}{{5}{11}{Network consisting of 2636 pores and 4291 throats, inscribed within a cube extending $1.07$ mm in each spatial direction. The pore-arrangement is obviously \emph {not uniform}, as can be seen by the clustering of pores in some regions, while others are mostly undisturbed. The \emph {porosity}, measured as the relative fraction of volume taken up by the void-space geometry, is roughly $32\%$.\relax }{figure.caption.7}{}}
\abx@aux@refcontextdefaultsdone
\abx@aux@defaultrefcontext{0}{MEYER2021103936}{none/global//global/global}
\abx@aux@defaultrefcontext{0}{MEYER2021101592}{none/global//global/global}
\abx@aux@defaultrefcontext{0}{petsc-web-page}{none/global//global/global}
\abx@aux@defaultrefcontext{0}{hypre-web-page}{none/global//global/global}
